…
## Compute something worthy of export

We need compute something worth writing to file. Let's create a country-level summary of maximum life expectancy.


```r
gap_life_exp <- gapminder %>%
  group_by(country, continent) %>% 
  summarize(life_exp = max(lifeExp)) %>% 
  ungroup()
#> `summarise()` has grouped output by 'country'. You can override using the
#> `.groups` argument.
gap_life_exp
#> # A tibble: 142 × 3
#>    country     continent life_exp
#>    <fct>       <fct>        <dbl>
#>  1 Afghanistan Asia          43.8
#>  2 Albania     Europe        76.4
#>  3 Algeria     Africa        72.3
#>  4 Angola      Africa        42.7
#>  5 Argentina   Americas      75.3
#>  6 Australia   Oceania       81.2
#>  7 Austria     Europe        79.8
#>  8 Bahrain     Asia          75.6
#>  9 Bangladesh  Asia          64.1
#> 10 Belgium     Europe        79.4
#> # … with 132 more rows
```
…
`saveRDS()` serializes an R object to a binary file. It's not a file you will able to open in an editor, diff nicely with Git(Hub), or share with non-R friends. It's a special purpose, limited use function that I use in specific situations.

The opposite of `saveRDS()` is `readRDS()`. You must assign the return value to an object. I highly recommend you assign back to the same name as before. Why confuse yourself?!?


```r
rm(gap_life_exp)
gap_life_exp
#> Error in eval(expr, envir, enclos): object 'gap_life_exp' not found
gap_life_exp <- readRDS("gap_life_exp.rds")
gap_life_exp
#> # A tibble: 142 × 3
#>    country     continent life_exp
#>    <fct>       <fct>        <dbl>
#>  1 Afghanistan Asia          43.8
#>  2 Albania     Europe        76.4
#>  3 Algeria     Africa        72.3
#>  4 Angola      Africa        42.7
#>  5 Argentina   Americas      75.3
#>  6 Australia   Oceania       81.2
#>  7 Austria     Europe        79.8
#>  8 Bahrain     Asia          75.6
#>  9 Bangladesh  Asia          64.1
#> 10 Belgium     Europe        79.4
#> # … with 132 more rows
```
…
