…
### Fit model to training data


``` r
email_fit <- email_wflow %>%
  fit(data = train_data)
#> Warning: glm.fit: fitted probabilities numerically 0 or 1 occurred
```


``` r
tidy(email_fit) %>% print(n = 31)
#> # A tibble: 32 × 5
#>    term               estimate  std.error statistic  p.value
#>    <chr>                 <dbl>      <dbl>     <dbl>    <dbl>
#>  1 (Intercept)        -1.11       0.274    -4.06    4.91e- 5
#>  2 image              -1.69       0.965    -1.75    7.98e- 2
#>  3 viagra              2.41     300.        0.00804 9.94e- 1
#>  4 num_char            0.0462     0.0271    1.70    8.89e- 2
#>  5 line_breaks        -0.00559    0.00151  -3.71    2.08e- 4
#>  6 exclaim_subj       -0.0667     0.271    -0.247   8.05e- 1
#>  7 exclaim_mess        0.0101     0.00214   4.70    2.58e- 6
#>  8 to_multiple_X1     -2.82       0.377    -7.48    7.59e-14
#>  9 cc_X.1.68.         -0.161      0.467    -0.345   7.30e- 1
#> 10 attach_X.1.21.      2.36       0.381     6.20    5.56e-10
#> 11 dollar_X.1.64.      0.0569     0.222     0.257   7.97e- 1
#> 12 winner_yes          2.20       0.418     5.27    1.39e- 7
#> 13 inherit_X.1.5.    -10.4     1226.       -0.00852 9.93e- 1
#> 14 inherit_X.5.10.     1.97       1.27      1.55    1.21e- 1
#> 15 password_X.1.5.    -1.77       0.757    -2.34    1.94e- 2
#> 16 password_X.5.10.  -13.4      697.       -0.0192  9.85e- 1
#> 17 password_X.10.20. -15.0     1319.       -0.0114  9.91e- 1
#> 18 password_X.20.28. -14.8     1342.       -0.0110  9.91e- 1
#> 19 format_X1          -0.808      0.161    -5.02    5.19e- 7
#> 20 re_subj_X1         -2.78       0.400    -6.96    3.47e-12
#> 21 urgent_subj_X1      2.55       1.12      2.29    2.22e- 2
#> 22 number_small       -0.659      0.170    -3.87    1.09e- 4
#> 23 number_big          0.221      0.246     0.897   3.70e- 1
#> 24 time_dow_Mon       -0.0727     0.309    -0.235   8.14e- 1
#> 25 time_dow_Tue        0.289      0.280     1.03    3.02e- 1
#> 26 time_dow_Wed       -0.167      0.288    -0.579   5.63e- 1
#> 27 time_dow_Thu       -0.165      0.293    -0.564   5.73e- 1
#> 28 time_dow_Fri       -0.0520     0.292    -0.178   8.58e- 1
#> 29 time_dow_Sat        0.313      0.305     1.03    3.05e- 1
#> 30 time_month_Feb      0.903      0.183     4.93    8.35e- 7
#> 31 time_month_Mar      0.644      0.186     3.46    5.48e- 4
#> # ℹ 1 more row
```

### Make predictions for test data


``` r
email_pred <- predict(email_fit, test_data, type = "prob") %>%
  bind_cols(test_data)

email_pred
#> # A tibble: 785 × 23
#>    .pred_0  .pred_1 spam  to_multiple from     cc sent_email time                image attach dollar
#>      <dbl>    <dbl> <fct> <fct>       <fct> <int> <fct>      <dttm>              <dbl>  <dbl>  <dbl>
#>  1   0.948 0.0518   0     0           1         0 0          2012-01-01 09:09:49     0      0      0
#>  2   0.913 0.0866   0     0           1         0 0          2012-01-02 03:00:18     0      0      0
#>  3   0.972 0.0278   0     0           1         0 0          2012-01-02 05:42:16     0      0      5
#>  4   0.895 0.105    0     0           1         0 0          2012-01-02 01:58:14     0      0      0
#>  5   0.993 0.00722  0     0           1         0 0          2012-01-02 07:07:22     0      0     21
#>  6   1.000 0.000420 0     1           1         2 0          2012-01-02 18:09:45     0      0      0
#>  7   0.999 0.000671 0     0           1         1 0          2012-01-02 15:12:51     0      0      0
#>  8   1.000 0.000273 0     1           1         2 0          2012-01-02 21:24:21     0      0      0
#>  9   0.971 0.0288   0     0           1         0 0          2012-01-03 09:34:50     0      0     11
#> 10   0.978 0.0219   0     0           1         0 0          2012-01-03 13:33:28     0      0     18
#> # ℹ 775 more rows
#> # ℹ 12 more variables: winner <fct>, inherit <dbl>, viagra <dbl>, password <dbl>, num_char <dbl>,
#> #   line_breaks <int>, format <fct>, re_subj <fct>, exclaim_subj <dbl>, urgent_subj <fct>,
#> #   exclaim_mess <dbl>, number <fct>
```
…
