…
```
#> Response: outcome (factor)
#> Null Hypothesis: point
#> # A tibble: 100 × 2
#>    replicate  stat
#>        <dbl> <dbl>
#>  1         1 0.161
#>  2         2 0.081
#>  3         3 0.161
#>  4         4 0.145
#>  5         5 0.097
#>  6         6 0.145
#>  7         7 0.081
#>  8         8 0.097
#>  9         9 0.161
#> 10        10 0.048
#> # ℹ 90 more rows
```
…
