…
## data-print
heights
#> # A tibble: 50 x 2
#>    elevation state      
#>        <dbl> <chr>      
#>  1      733. Alabama    
#>  2     6168. Alaska     
#>  3     3851. Arizona    
#>  4      839. Arkansas   
#>  5     4418. California 
#>  6     4399. Colorado   
#>  7      725. Connecticut
#>  8      137. Delaware   
#>  9      105. Florida    
#> 10     1458. Georgia    
#> 11     4205. Hawaii     
#> 12     3859. Idaho      
#> 13      376. Illinois   
#> 14      383. Indiana    
#> 15      509. Iowa       
#> # ... with 35 more rows

## data-arrange-ascending
arrange(heights, elevation)
#> # A tibble: 50 x 2
#>    elevation state       
#>        <dbl> <chr>       
#>  1      105. Florida     
#>  2      137. Delaware    
#>  3      163. Louisiana   
#>  4      246. Mississippi 
#>  5      247. Rhode Island
#>  6      376. Illinois    
#>  7      383. Indiana     
#>  8      472. Ohio        
#>  9      509. Iowa        
#> 10      540. Missouri    
#> 11      550. New Jersey  
#> 12      595. Wisconsin   
#> 13      603. Michigan    
#> 14      701. Minnesota   
#> 15      725. Connecticut 
#> # ... with 35 more rows

## data-arrange-descending
arrange(heights, desc(elevation))
#> # A tibble: 50 x 2
#>    elevation state       
#>        <dbl> <chr>       
#>  1     6168. Alaska      
#>  2     4418. California  
#>  3     4399. Colorado    
#>  4     4392. Washington  
#>  5     4207. Wyoming     
#>  6     4205. Hawaii      
#>  7     4123. Utah        
#>  8     4011. New Mexico  
#>  9     4005. Nevada      
#> 10     3901. Montana     
#> 11     3859. Idaho       
#> 12     3851. Arizona     
#> 13     3426. Oregon      
#> 14     2667. Texas       
#> 15     2207. South Dakota
#> # ... with 35 more rows
…
Now we can boldly print `gapminder` to screen! It is a tibble (and also a regular data frame) and the tidyverse provides a nice print method that shows the most important stuff and doesn't fill up your Console.


```r
## see? it's still a regular data frame, but also a tibble
class(gapminder)
#> [1] "tbl_df"     "tbl"        "data.frame"
gapminder
#> # A tibble: 1,704 x 6
#>    country     continent  year lifeExp      pop gdpPercap
#>    <fct>       <fct>     <int>   <dbl>    <int>     <dbl>
#>  1 Afghanistan Asia       1952    28.8  8425333      779.
#>  2 Afghanistan Asia       1957    30.3  9240934      821.
#>  3 Afghanistan Asia       1962    32.0 10267083      853.
#>  4 Afghanistan Asia       1967    34.0 11537966      836.
#>  5 Afghanistan Asia       1972    36.1 13079460      740.
#>  6 Afghanistan Asia       1977    38.4 14880372      786.
#>  7 Afghanistan Asia       1982    39.9 12881816      978.
#>  8 Afghanistan Asia       1987    40.8 13867957      852.
#>  9 Afghanistan Asia       1992    41.7 16317921      649.
#> 10 Afghanistan Asia       1997    41.8 22227415      635.
#> # ... with 1,694 more rows
```
…
#> 4 Afghanistan Asia       1967    34.0 11537966      836.
#> 5 Afghanistan Asia       1972    36.1 13079460      740.
#> 6 Afghanistan Asia       1977    38.4 14880372      786.
tail(gapminder)
#> # A tibble: 6 x 6
#>   country  continent  year lifeExp      pop gdpPercap
#>   <fct>    <fct>     <int>   <dbl>    <int>     <dbl>
#> 1 Zimbabwe Africa     1982    60.4  7636524      789.
#> 2 Zimbabwe Africa     1987    62.4  9216418      706.
#> 3 Zimbabwe Africa     1992    60.4 10704340      693.
#> 4 Zimbabwe Africa     1997    46.8 11404948      792.
#> 5 Zimbabwe Africa     2002    40.0 11926563      672.
#> 6 Zimbabwe Africa     2007    43.5 12311143      470.
as_tibble(iris)
#> # A tibble: 150 x 5
#>    Sepal.Length Sepal.Width Petal.Length Petal.Width Species
#>           <dbl>       <dbl>        <dbl>       <dbl> <fct>  
#>  1          5.1         3.5          1.4         0.2 setosa 
#>  2          4.9         3            1.4         0.2 setosa 
#>  3          4.7         3.2          1.3         0.2 setosa 
#>  4          4.6         3.1          1.5         0.2 setosa 
#>  5          5           3.6          1.4         0.2 setosa 
#>  6          5.4         3.9          1.7         0.4 setosa 
#>  7          4.6         3.4          1.4         0.3 setosa 
#>  8          5           3.4          1.5         0.2 setosa 
#>  9          4.4         2.9          1.4         0.2 setosa 
#> 10          4.9         3.1          1.5         0.1 setosa 
#> # ... with 140 more rows
```
…
