Lab 7 Lab 06 - Ugly charts | Data Science for Psychologists
…
The first argument is data as usual.

The second argument, cols, is where you specify which columns to pivot into longer format – in this case all columns except for the faculty_type

The third argument, names_to, is a string specifying the name of the column to create from the data stored in the column names of data – in this case year

staff_long <- staff %>%
  pivot_longer(cols = -faculty_type, names_to = "year") %>%
  mutate(value = as.numeric(value))

Let’s take a look at what the new longer data frame looks like.

staff_long

## # A tibble: 55 x 3
##    faculty_type              year  value
##    <chr>                     <chr> <dbl>
##  1 Full-Time Tenured Faculty 1975   29  
##  2 Full-Time Tenured Faculty 1989   27.6
##  3 Full-Time Tenured Faculty 1993   25  
##  4 Full-Time Tenured Faculty 1995   24.8
##  5 Full-Time Tenured Faculty 1999   21.8
##  6 Full-Time Tenured Faculty 2001   20.3
##  7 Full-Time Tenured Faculty 2003   19.3
##  8 Full-Time Tenured Faculty 2005   17.8
##  9 Full-Time Tenured Faculty 2007   17.2
## 10 Full-Time Tenured Faculty 2009   16.8
## # ... with 45 more rows
…
